Applications of Subsetting Operators in R | Yang (Ken) Wu
…
Ordering the columns in a data frame alphabetically

This can easily be done using R’s subsetting operators:

# A function that orders the columns of data frame alphabetically
order_columns <- function(data) {

  # Select columns according to the indices generated by order()
  # We could also use sort()
  data[, order(x = names(data))]
}
# Test
as_tibble(order_columns(data = mtcars))

# A tibble: 32 × 11
      am  carb   cyl  disp  drat  gear    hp   mpg  qsec    vs    wt
   <dbl> <dbl> <dbl> <dbl> <dbl> <dbl> <dbl> <dbl> <dbl> <dbl> <dbl>
 1     1     4     6  160   3.9      4   110  21    16.5     0  2.62
 2     1     4     6  160   3.9      4   110  21    17.0     0  2.88
 3     1     1     4  108   3.85     4    93  22.8  18.6     1  2.32
 4     0     1     6  258   3.08     3   110  21.4  19.4     1  3.22
 5     0     2     8  360   3.15     3   175  18.7  17.0     0  3.44
 6     0     1     6  225   2.76     3   105  18.1  20.2     1  3.46
 7     0     4     8  360   3.21     3   245  14.3  15.8     0  3.57
 8     0     2     4  147.  3.69     4    62  24.4  20       1  3.19
 9     0     2     4  141.  3.92     4    95  22.8  22.9     1  3.15
10     0     4     6  168.  3.92     4   123  19.2  18.3     1  3.44
# … with 22 more rows

as_tibble(order_columns(data = iris))

# A tibble: 150 × 5
   Petal.Length Petal.Width Sepal.Length Sepal.Width Species
          <dbl>       <dbl>        <dbl>       <dbl> <fct>  
 1          1.4         0.2          5.1         3.5 setosa 
 2          1.4         0.2          4.9         3   setosa 
 3          1.3         0.2          4.7         3.2 setosa 
 4          1.5         0.2          4.6         3.1 setosa 
 5          1.4         0.2          5           3.6 setosa 
 6          1.7         0.4          5.4         3.9 setosa 
 7          1.4         0.3          4.6         3.4 setosa 
 8          1.5         0.2          5           3.4 setosa 
 9          1.4         0.2          4.4         2.9 setosa 
10          1.5         0.1          4.9         3.1 setosa 
# … with 140 more rows

as_tibble(order_columns(data = USArrests))

# A tibble: 50 × 4
   Assault Murder  Rape UrbanPop
     <int>  <dbl> <dbl>    <int>
 1     236   13.2  21.2       58
 2     263   10    44.5       48
 3     294    8.1  31         80
 4     190    8.8  19.5       50
 5     276    9    40.6       91
 6     204    7.9  38.7       78
 7     110    3.3  11.1       77
 8     238    5.9  15.8       72
 9     335   15.4  31.9       80
10     211   17.4  25.8       60
# … with 40 more rows
…
